…
```r
selected %>% count(body_part, wt = weight, sort = TRUE)
```

```
## # A tibble: 24 × 2
##    body_part        n
##    <chr>        <dbl>
##  1 Head        31370.
##  2 Lower Trunk 26855.
##  3 Face        13016.
##  4 Upper Trunk 12508.
##  5 Knee         6968.
##  6 N.S./Unk     6741.
##  7 Lower Leg    5087.
##  8 Shoulder     3590.
##  9 All Of Body  3438.
## 10 Ankle        3315.
## # ℹ 14 more rows
```
…
As you might expect, injuries involving toilets most often occur at home. The most common body parts involved possibly suggest that these are falls (since the head and face are not usually involved in routine toilet usage), and the diagnoses seem rather varied.

We can also explore the pattern across age and sex. We have enough data here that a table is not that useful, and so I make a plot, Fig..., that makes the patterns more obvious.


```r
summary <- selected %>% 
  count(age, sex, wt = weight)
summary
```

```
## # A tibble: 208 × 3
##      age sex          n
##    <dbl> <chr>    <dbl>
##  1     0 female    4.76
##  2     0 male     14.3 
##  3     1 female  253.  
##  4     1 male    231.  
##  5     2 female  438.  
##  6     2 male    632.  
##  7     3 female  381.  
##  8     3 male   1004.  
##  9     4 female  261.  
## 10     4 male    843.  
## # ℹ 198 more rows
```
…
One problem with interpreting this pattern is that we know that there are fewer older people than younger people, so the population available to be injured is smaller. We can control for this by comparing the number of people injured with the total population and calculating an injury rate. Here I use a rate per 10,000.


```r
summary <- selected %>% 
  count(age, sex, wt = weight) %>% 
  left_join(population, by = c("age", "sex")) %>% 
  mutate(rate = n / population * 1e4)

summary
```

```
## # A tibble: 208 × 5
##      age sex          n population   rate
##    <dbl> <chr>    <dbl>      <dbl>  <dbl>
##  1     0 female    4.76    1924145 0.0247
##  2     0 male     14.3     2015150 0.0708
##  3     1 female  253.      1943534 1.30  
##  4     1 male    231.      2031718 1.14  
##  5     2 female  438.      1965150 2.23  
##  6     2 male    632.      2056625 3.07  
##  7     3 female  381.      1956281 1.95  
##  8     3 male   1004.      2050474 4.90  
##  9     4 female  261.      1953782 1.33  
## 10     4 male    843.      2042001 4.13  
## # ℹ 198 more rows
```
…
